{
    "bitfuncs_gid": "1042",
    "bitfuncs_uid": "1042",
    "docker_compose_command": "/home/bitfuncs/.local/bin/docker-compose",
    "docker_volumes_dir": "/home/bitfuncs/.docker/volumes/bitfuncs",
    "pip_command": "pip3",
    "postgres_password": "toor",
    "repo_name": "bitfuncs-runner",
    "timer_calendar": "*:0/5"
}
